Arbiter/ProposedMethod/step1_GeneratingST/SimulationTraceSetUpWithCOCOTB/gtkwave/Arbiter_wave.vcd
$date
	Mon Jun 19 09:28:27 2023
$end
$version
	Icarus Verilog
$end
$timescale
	1ps
$end
$scope module Arbiter_wrapper $end
$var wire 1 ! DCTS $end
$var wire 1 " Req_E $end
$var wire 1 # Req_L $end
$var wire 1 $ Req_N $end
$var wire 1 % Req_S $end
$var wire 1 & Req_W $end
$var wire 1 ' rst $end
$var wire 5 ( Xbar_sel [4:0] $end
$var wire 1 ) RTS $end
$var wire 1 * Grant_W $end
$var wire 1 + Grant_S $end
$var wire 1 , Grant_N $end
$var wire 1 - Grant_L $end
$var wire 1 . Grant_E $end
$var reg 1 / clk $end
$scope module DUT_Arbiter $end
$var wire 1 ! DCTS $end
$var wire 1 ) RTS $end
$var wire 1 " Req_E $end
$var wire 1 # Req_L $end
$var wire 1 $ Req_N $end
$var wire 1 % Req_S $end
$var wire 1 & Req_W $end
$var wire 1 / clk $end
$var wire 1 ' rst $end
$var reg 1 . Grant_E $end
$var reg 1 - Grant_L $end
$var reg 1 , Grant_N $end
$var reg 1 + Grant_S $end
$var reg 1 * Grant_W $end
$var reg 1 0 RTS_FF $end
$var reg 1 1 RTS_FF_in $end
$var reg 5 2 Xbar_sel [4:0] $end
$var reg 6 3 next_state [5:0] $end
$var reg 6 4 state [5:0] $end
$var reg 6 5 state_in [5:0] $end
$upscope $end
$scope begin $unm_blk_57 $end
$var integer 32 6 f [31:0] $end
$var integer 32 7 fd [31:0] $end
$var integer 32 8 g [31:0] $end
$upscope $end
$upscope $end
$enddefinitions $end
#0
$dumpvars
b1000 8
b10 7
b100 6
b1 5
bx 4
b1 3
b10000 2
11
00
1/
0.
0-
0,
0+
0*
0)
b10000 (
1'
z&
z%
z$
z#
z"
z!
$end
#500
0/
#1000
0'
b0 (
b0 2
01
b1 4
1/
#1500
0/
#2000
0!
0#
0%
0&
0"
0$
1/
#2500
0/
#3000
1/
#3500
0/
#4000
1'
1/
#4500
0/
#5000
b10 5
b10 3
1"
1#
1%
1&
1$
1/
#5500
0/
#6000
b1 3
b1 5
1/
#6500
0/
#7000
b100 5
b100 3
0'
1!
0#
0%
0"
0&
1/
#7500
0/
#8000
1'
1"
1&
1%
1#
b1 (
b1 2
11
b100 4
1/
#8500
0/
#9000
0'
0"
0%
0$
b0 (
b0 2
01
b10 3
b10 5
b1 4
1/
#9500
0/
#10000
b100 5
b100 3
0!
1$
1%
0&
0#
b10000 (
b10000 2
11
b10 4
1/
#10500
0/
#11000
b1000 5
01
b1000 3
1,
1'
1!
1"
1#
0$
0%
b1 (
b1 2
1)
10
b100 4
1/
#11500
0/
#12000
0'
1$
1&
1%
b0 (
b0 2
0,
0)
00
b10 3
b10 5
b1 4
1/
#12500
0/
#13000
0&
0"
0%
b10000 (
b10000 2
11
b10 4
1/
#13500
0/
#14000
b100 5
b100 3
1'
0#
1-
b10000 (
b10000 2
01
1)
10
1/
#14500
0/
#15000
0!
1"
1#
1%
b0 (
b0 2
0-
0)
00
b10 3
b10 5
b1 4
1/
#15500
0/
#16000
1!
1&
b10 3
b10 5
1/
#16500
0/
#17000
0'
0!
0#
b100 3
b100 5
1/
#17500
0/
#18000
b1 5
b1 3
1!
0&
0$
0"
0%
b1 (
b1 2
11
b100 4
1/
#18500
0/
#19000
b10000 3
1'
0!
1&
b0 (
b0 2
01
1)
10
b1 4
1/
#19500
0/
#20000
1!
1%
0&
b100000 5
0)
00
b100000 3
1/
#20500
0/
#21000
1&
1#
1"
1$
b10 3
b10 5
1/
#21500
0/
#22000
0'
b1 3
b1 5
1/
#22500
0/
#23000
b100 5
b100 3
0%
0"
0#
1/
#23500
0/
#24000
1'
1%
1"
1#
b1 (
b1 2
11
b100 4
1/
#24500
0/
#25000
0'
0%
b0 (
b0 2
01
b10 3
b10 5
b1 4
1/
#25500
0/
#26000
b1000 5
b1000 3
1'
0!
0#
0$
0&
b10000 (
b10000 2
11
b10 4
1/
#26500
0/
#27000
0"
b0 (
b0 2
01
b1 3
b1 5
b1 4
1/
#27500
0/
#28000
b10 5
b10 3
1!
1$
1#
1"
1%
1&
1/
#28500
0/
#29000
0'
0$
0#
0"
0%
0&
b1 3
b1 5
1/
#29500
0/
#30000
1'
0!
1/
#30500
0/
#31000
b100 5
b100 3
1!
1$
1&
1"
1/
#31500
0/
#32000
0'
1#
0$
b10 3
b10 5
1/
#32500
0/
#33000
b1000 5
b1000 3
1'
0#
b10000 (
b10000 2
11
b10 4
1/
#33500
0/
#34000
0!
1#
1%
1$
b0 (
b0 2
01
b10 3
b10 5
b1 4
1/
#34500
0/
#35000
0'
1!
0#
0"
0&
0%
0$
b1 3
b1 5
1/
#35500
0/
#36000
b10 5
b10 3
1'
0!
1&
1%
1"
1#
1/
#36500
0/
#37000
1!
0&
0%
0"
0#
b1 3
b1 5
1/
#37500
0/
#38000
b10 5
b10 3
0'
0!
1$
1&
1"
1#
1%
1/
#38500
0/
#39000
b100 5
b100 3
1'
0&
0"
0#
0%
b10000 (
b10000 2
11
b10 4
1/
#39500
0/
#40000
1!
b0 (
b0 2
01
b100 3
b100 5
b1 4
1/
#40500
0/
#41000
0!
1#
b10 3
b10 5
1/
#41500
0/
#42000
1!
1"
0$
b10 3
b10 5
1/
#42500
0/
#43000
1&
1%
0#
b1000 3
b1000 5
1/
#43500
0/
#44000
1#
1$
b10 3
b10 5
1/
#44500
0/
#45000
0'
b1 3
b1 5
1/
#45500
0/
#46000
b100000 5
b100000 3
0!
0$
0&
0#
0"
1/
#46500
0/
#47000
b10 5
b10 3
1#
0%
b1000 (
b1000 2
11
b100000 4
1/
#47500
0/
#48000
01
1-
1!
1$
1"
1%
b10000 (
b10000 2
1)
10
b10 4
1/
#48500
0/
#49000
b1000 5
b1000 3
1'
0!
1&
0#
0$
0%
b10000 (
b10000 2
0-
11
0)
00
1/
#49500
0/
#50000
0'
1!
1#
1$
1%
b0 (
b0 2
01
b10 3
b10 5
b1 4
1/
#50500
0/
#51000
b100 5
b100 3
0!
0#
0%
b10000 (
b10000 2
11
b10 4
1/
#51500
0/
#52000
1'
0"
0&
b1 (
b1 2
1)
10
b100 4
1/
#52500
0/
#53000
1"
0$
b0 (
b0 2
01
0)
00
b1000 3
b1000 5
b1 4
1/
#53500
0/
#54000
1%
1#
0"
b10 3
b10 5
1/
#54500
0/
#55000
1$
1"
1&
b10 3
b10 5
1/
#55500
0/
#56000
0'
1!
0#
0"
0&
0%
b100 3
b100 5
1/
#56500
0/
#57000
b10000 5
b10000 3
1'
0!
1%
1&
0$
b1 (
b1 2
11
b100 4
1/
#57500
0/
#58000
1!
1"
0%
b0 (
b0 2
01
b1000 3
b1000 5
b1 4
1/
#58500
0/
#59000
0'
0!
1%
1#
1$
b10 3
b10 5
1/
#59500
0/
#60000
1'
1!
0%
0$
b10000 (
b10000 2
11
b10 4
1/
#60500
0/
#61000
0'
0#
0&
b0 (
b0 2
01
b1000 3
b1000 5
b1 4
1/
#61500
0/
#62000
b1 5
b1 3
1'
0"
b10 (
b10 2
11
b1000 4
1/
#62500
0/
#63000
b10 5
b10 3
0'
1#
1%
1&
1$
1"
b0 (
b0 2
01
b1 4
1/
#63500
0/
#64000
1'
0%
0&
0$
0"
b10000 (
b10000 2
11
b10 4
1/
#64500
0/
#65000
0'
0!
1$
0#
b0 (
b0 2
01
b100 3
b100 5
b1 4
1/
#65500
0/
#66000
b1 5
b1 3
1!
0$
b1 (
b1 2
11
b100 4
1/
#66500
0/
#67000
b10000 5
b10000 3
1&
b0 (
b0 2
01
1)
10
b1 4
1/
#67500
0/
#68000
b10 5
b10 3
0!
1#
1$
0&
b100 (
b100 2
11
0)
00
b10000 4
1/
#68500
0/
#69000
b100 3
1"
0#
b10000 (
b10000 2
1)
10
b10 4
1/
#69500
0/
#70000
b1 3
b10000 (
b10000 2
1'
0"
0$
1/
#70500
0/
#71000
b10 3
1!
1%
1#
b0 (
b0 2
01
0)
00
b10 5
b1 4
1/
#71500
0/
#72000
0'
0!
1$
1"
b10 3
b10 5
1/
#72500
0/
#73000
1&
0$
0"
b10000 (
b10000 2
11
b10 4
1/
#73500
0/
#74000
01
1-
1!
1$
0&
b10000 (
b10000 2
1)
10
1/
#74500
0/
#75000
b1 5
b1 3
1'
0$
0%
0#
b10000 (
b10000 2
0-
11
0)
00
1/
#75500
0/
#76000
0'
b0 (
b0 2
01
b1 4
1/
#76500
0/
#77000
b100 5
b100 3
1'
0!
1"
1$
1/
#77500
0/
#78000
1!
0"
0$
b1 3
b1 5
1/
#78500
0/
#79000
b10 5
b10 3
0'
0!
1%
1#
1&
1"
1$
1/
#79500
0/
#80000
1!
0%
0&
0$
b10000 (
b10000 2
11
b10 4
1/
#80500
0/
#81000
1'
0!
1$
1&
1%
0-
b10000 (
b10000 2
11
1)
10
1/
#81500
0/
#82000
0'
1!
b0 (
b0 2
01
0)
00
b10 3
b10 5
b1 4
1/
#82500
0/
#83000
1'
0!
b10000 (
b10000 2
11
b10 4
1/
#83500
0/
#84000
1!
0%
0#
0"
0$
b0 (
b0 2
01
b10000 3
b10000 5
b1 4
1/
#84500
0/
#85000
0'
0!
b10000 3
b10000 5
1/
#85500
0/
#86000
b10 5
b10 3
1#
0&
b100 (
b100 2
11
b10000 4
1/
#86500
0/
#87000
b1 5
01
b1 3
1-
1'
1!
0#
b10000 (
b10000 2
1)
10
b10 4
1/
#87500
0/
#88000
b100000 5
b100000 3
0'
0!
1%
b0 (
b0 2
0-
0)
00
b1 4
1/
#88500
0/
#89000
1'
1!
b1000 (
b1000 2
11
b100000 4
1/
#89500
0/
#90000
0'
1"
b0 (
b0 2
01
b1000 3
b1000 5
b1 4
1/
#90500
0/
#91000
b10 5
b10 3
1'
1#
0"
0%
b10 (
b10 2
11
b1000 4
1/
#91500
0/
#92000
0#
b0 (
b0 2
01
b1 3
b1 5
b1 4
1/
#92500
0/
#93000
b10 5
b10 3
0'
0!
1&
1"
1%
1#
1$
1/
#93500
0/
#94000
1!
0"
0%
b10000 (
b10000 2
11
b10 4
1/
#94500
0/
#95000
1'
0!
1"
0-
b10000 (
b10000 2
11
1)
10
1/
#95500
0/
#96000
1!
0$
0&
b0 (
b0 2
01
0)
00
b10 3
b10 5
b1 4
1/
#96500
0/
#97000
0'
1&
1%
1$
0#
b100 3
b100 5
1/
#97500
0/
#98000
b1 5
b1 3
1'
0!
0&
0%
0"
0$
b1 (
b1 2
11
b100 4
1/
#98500
0/
#99000
b10 5
b10 3
1!
1&
1%
1#
b0 (
b0 2
01
b1 4
1/
#99500
0/
#100000
0!
1$
0&
b10 3
b10 5
1/
#100500
0/
#101000
0$
0#
b100000 3
b100000 5
1/
#101500
0/
#102000
0'
1"
b1000 3
b1000 5
1/
#102500
0/
#103000
1&
1#
0%
b10 (
b10 2
11
b1000 4
1/
#103500
0/
#104000
b1 5
01
b1 3
1.
1'
1!
0"
0&
0#
b10 (
b10 2
1)
10
1/
#104500
0/
#105000
b10 5
b10 3
1#
1%
1$
1"
1&
b0 (
b0 2
0.
0)
00
b1 4
1/
#105500
0/
#106000
0'
0#
0%
0$
0"
0&
b1 3
b1 5
1/
#106500
0/
#107000
b10 5
b10 3
1'
0!
1"
1&
1#
1$
1%
1/
#107500
0/
#108000
0'
0#
b100 3
b100 5
1/
#108500
0/
#109000
1'
1!
0%
0"
b1 (
b1 2
11
b100 4
1/
#109500
0/
#110000
0!
1#
1"
0$
b0 (
b0 2
01
b10 3
b10 5
b1 4
1/
#110500
0/
#111000
0'
1%
1$
0"
b10 3
b10 5
1/
#111500
0/
#112000
1'
1"
0&
b10000 (
b10000 2
11
b10 4
1/
#112500
0/
#113000
1!
0"
b0 (
b0 2
01
b10 3
b10 5
b1 4
1/
#113500
0/
#114000
0%
0#
b100 3
b100 5
1/
#114500
0/
#115000
1"
b100 3
b100 5
1/
#115500
0/
#116000
0!
0$
b1000 3
b1000 5
1/
#116500
0/
#117000
0'
1!
1&
0"
b10000 3
b10000 5
1/
#117500
0/
#118000
b10 5
b10 3
1"
1#
1$
0&
b100 (
b100 2
11
b10000 4
1/
#118500
0/
#119000
1&
0"
0$
1-
b10000 (
b10000 2
01
1)
10
b10 4
1/
#119500
0/
#120000
b1 5
b1 3
0#
0&
b10000 (
b10000 2
0-
11
0)
00
1/
#120500
0/
#121000
b100 3
1'
0!
1%
1$
b0 (
b0 2
01
1)
10
b1 4
1/
#121500
0/
#122000
1!
1#
0%
b10 5
0)
00
b10 3
1/
#122500
0/
#123000
0!
1%
0#
0$
b100000 3
b100000 5
1/
#123500
0/
#124000
0'
1"
1&
1#
b10 3
b10 5
1/
#124500
0/
#125000
1!
1$
b10000 (
b10000 2
11
b10 4
1/
#125500
0/
#126000
1'
0%
0$
1-
b10000 (
b10000 2
01
1)
10
1/
#126500
0/
#127000
0'
0!
0"
0#
0&
b0 (
b0 2
0-
0)
00
b1 3
b1 5
b1 4
1/
#127500
0/
#128000
b100 5
b100 3
1!
1%
1&
1"
1$
1/
#128500
0/
#129000
b1 5
b1 3
0%
0&
0"
0$
b1 (
b1 2
11
b100 4
1/
#129500
0/
#130000
b10 5
b10 3
1"
1$
1#
1%
b0 (
b0 2
01
1)
10
b1 4
1/
#130500
0/
#131000
b1000 5
b1000 3
1'
0!
0$
0#
0%
b10000 (
b10000 2
11
0)
00
b10 4
1/
#131500
0/
#132000
1!
1%
1$
1#
0"
b0 (
b0 2
01
b10 3
b10 5
b1 4
1/
#132500
0/
#133000
0!
1"
1&
b10 3
b10 5
1/
#133500
0/
#134000
0'
1!
0"
b10 3
b10 5
1/
#134500
0/
#135000
1'
0!
0%
0&
0$
b10000 (
b10000 2
11
b10 4
1/
#135500
0/
#136000
0'
1!
b0 (
b0 2
01
b10 3
b10 5
b1 4
1/
#136500
0/
#137000
1"
1$
1&
1%
b10000 (
b10000 2
11
b10 4
1/
#137500
0/
#138000
b1 3
1'
0!
0"
0#
0$
0&
0%
0-
b10000 (
b10000 2
11
1)
10
1/
#138500
0/
#139000
b10 3
0'
1#
1$
b0 (
b0 2
01
0)
00
b10 5
b1 4
1/
#139500
0/
#140000
1!
1%
0$
b10000 (
b10000 2
11
b10 4
1/
#140500
0/
#141000
1'
1&
1$
1-
b10000 (
b10000 2
01
1)
10
1/
#141500
0/
#142000
0'
1"
0%
b0 (
b0 2
0-
0)
00
b10 3
b10 5
b1 4
1/
#142500
0/
#143000
b100 5
b100 3
1'
0!
0&
0#
b10000 (
b10000 2
11
b10 4
1/
#143500
0/
#144000
1!
1&
0"
b0 (
b0 2
01
b100 3
b100 5
b1 4
1/
#144500
0/
#145000
0'
1#
1%
1"
b10 3
b10 5
1/
#145500
0/
#146000
0!
0"
0&
b10000 (
b10000 2
11
b10 4
1/
#146500
0/
#147000
1'
1"
1&
b10000 (
b10000 2
1)
10
1/
#147500
0/
#148000
0"
b0 (
b0 2
01
0)
00
b10 3
b10 5
b1 4
1/
#148500
0/
#149000
0'
0$
0%
0#
0&
b1 3
b1 5
1/
#149500
0/
#150000
1'
1/
#150500
0/
#151000
b10 5
b10 3
0'
1%
1$
1#
1"
1&
1/
#151500
0/
#152000
b100 5
b100 3
1'
1!
0%
0#
0&
b10000 (
b10000 2
11
b10 4
1/
#152500
0/
#153000
b0 (
b0 2
01
b100 3
b100 5
b1 4
1/
#153500
0/
#154000
0'
0!
1%
1#
1&
b10 3
b10 5
1/
#154500
0/
#155000
1!
0%
0&
0$
b10000 (
b10000 2
11
b10 4
1/
#155500
0/
#156000
b10000 5
b10000 3
1'
1&
1%
0"
0#
1-
b10000 (
b10000 2
01
1)
10
1/
#156500
0/
#157000
1"
1$
1#
b0 (
b0 2
0-
0)
00
b10 3
b10 5
b1 4
1/
#157500
0/
#158000
0'
b1 3
b1 5
1/
#158500
0/
#159000
b10 5
b10 3
1'
0%
0&
1/
#159500
0/
#160000
0"
0$
0#
b1 3
b1 5
1/
#160500
0/
#161000
0'
1/
#161500
0/
#162000
1'
0!
1/
#162500
0/
#163000
b10 5
b10 3
0'
1$
1#
1&
1%
1/
#163500
0/
#164000
1'
1"
b10000 (
b10000 2
11
b10 4
1/
#164500
0/
#165000
1!
0$
0"
0%
0#
b0 (
b0 2
01
b10000 3
b10000 5
b1 4
1/
#165500
0/
#166000
0!
1$
0&
b100 3
b100 5
1/
#166500
0/
#167000
0'
1#
1%
b10 3
b10 5
1/
#167500
0/
#168000
b1 5
b1 3
1'
0#
0$
0%
b10000 (
b10000 2
11
b10 4
1/
#168500
0/
#169000
0'
b0 (
b0 2
01
b1 4
1/
#169500
0/
#170000
b10 5
b10 3
1'
1$
1#
1"
1%
1/
#170500
0/
#171000
1&
b10 3
b10 5
1/
#171500
0/
#172000
1!
0$
0"
0#
b10000 3
b10000 5
1/
#172500
0/
#173000
0'
1#
1$
1"
0&
b10 3
b10 5
1/
#173500
0/
#174000
b100000 5
b100000 3
1'
0!
0#
0$
0"
b10000 (
b10000 2
11
b10 4
1/
#174500
0/
#175000
0'
1#
0%
b0 (
b0 2
01
b10 3
b10 5
b1 4
1/
#175500
0/
#176000
b1 5
b1 3
1!
0#
b10000 (
b10000 2
11
b10 4
1/
#176500
0/
#177000
b10 3
1'
0!
1&
1%
1"
1$
1#
b0 (
b0 2
01
1)
10
b1 4
1/
#177500
0/
#178000
0'
1!
b10 5
0)
00
b10 3
1/
#178500
0/
#179000
b1 5
b1 3
0&
0$
0"
0%
0#
b10000 (
b10000 2
11
b10 4
1/
#179500
0/
#180000
b10 3
0!
1%
1#
b0 (
b0 2
01
1)
10
b1 4
1/
#180500
0/
#181000
b1000 3
1'
1!
1"
0%
0#
b1000 5
0)
00
1/
#181500
0/
#182000
1&
b1000 3
b1000 5
1/
#182500
0/
#183000
0'
1#
1%
0&
0"
b10 3
b10 5
1/
#183500
0/
#184000
0!
1$
1"
1&
b10000 (
b10000 2
11
b10 4
1/
#184500
0/
#185000
1'
b10000 (
b10000 2
1)
10
1/
#185500
0/
#186000
0'
0$
b0 (
b0 2
01
0)
00
b10 3
b10 5
b1 4
1/
#186500
0/
#187000
1$
b10000 (
b10000 2
11
b10 4
1/
#187500
0/
#188000
01
1-
1!
0&
0$
0%
b10000 (
b10000 2
1)
10
1/
#188500
0/
#189000
b1 5
b1 3
0!
0#
0"
b10000 (
b10000 2
0-
11
0)
00
1/
#189500
0/
#190000
b10 3
1&
1#
1$
b0 (
b0 2
01
1)
10
b1 4
1/
#190500
0/
#191000
1'
1!
1%
1"
b10 5
0)
00
1/
#191500
0/
#192000
0!
0&
b10 3
b10 5
1/
#192500
0/
#193000
0'
1!
0%
0#
0"
b100 3
b100 5
1/
#193500
0/
#194000
1#
1"
1%
b1 (
b1 2
11
b100 4
1/
#194500
0/
#195000
1'
1,
b1 (
b1 2
01
1)
10
1/
#195500
0/
#196000
0'
0%
0#
0$
b0 (
b0 2
0,
0)
00
b1000 3
b1000 5
b1 4
1/
#196500
0/
#197000
b10000 5
b10000 3
1$
1#
1&
0"
b10 (
b10 2
11
b1000 4
1/
#197500
0/
#198000
b1000 5
b1000 3
1"
0$
0#
0&
1*
b100 (
b100 2
01
1)
10
b10000 4
1/
#198500
0/
#199000
1'
0!
1#
1%
1$
b10 (
b10 2
0*
11
0)
00
b1000 4
1/
#199500
0/
#200000
1!
1&
0%
0$
b0 (
b0 2
01
b10 3
b10 5
b1 4
1/
#200500
0/
#201000
0'
0&
b10 3
b10 5
1/
#201500
0/
#202000
b100 5
b100 3
1&
1$
0#
b10000 (
b10000 2
11
b10 4
1/
#202500
0/
#203000
b1000 5
b1000 3
1#
0$
1,
b1 (
b1 2
01
1)
10
b100 4
1/
#203500
0/
#204000
b10000 5
b10000 3
0!
1%
0#
0"
b10 (
b10 2
0,
11
0)
00
b1000 4
1/
#204500
0/
#205000
b100000 3
1'
1"
1$
0&
b100 (
b100 2
1)
10
b10000 4
1/
#205500
0/
#206000
1!
1&
0"
b0 (
b0 2
01
0)
00
b100 3
b100 5
b1 4
1/
#206500
0/
#207000
0!
1"
b100 3
b100 5
1/
#207500
0/
#208000
0'
1!
1#
b10 3
b10 5
1/
#208500
0/
#209000
0!
b10000 (
b10000 2
11
b10 4
1/
#209500
0/
#210000
b10000 (
b10000 2
1)
10
1/
#210500
0/
#211000
b100 5
01
b100 3
1-
b10000 (
b10000 2
1'
1!
0%
0#
1/
#211500
0/
#212000
0'
0!
1#
1%
b0 (
b0 2
0-
0)
00
b10 3
b10 5
b1 4
1/
#212500
0/
#213000
1'
1!
0%
0&
0$
b10000 (
b10000 2
11
b10 4
1/
#213500
0/
#214000
0"
b0 (
b0 2
01
b10 3
b10 5
b1 4
1/
#214500
0/
#215000
1%
1$
0#
b100 3
b100 5
1/
#215500
0/
#216000
0!
1&
1"
0%
b100 3
b100 5
1/
#216500
0/
#217000
1#
0&
0"
b10 3
b10 5
1/
#217500
0/
#218000
1!
1"
0#
b100 3
b100 5
1/
#218500
0/
#219000
1%
1&
0"
b100 3
b100 5
1/
#219500
0/
#220000
1#
0$
0&
b10 3
b10 5
1/
#220500
0/
#221000
0'
0!
1$
1&
1"
0%
0#
b100 3
b100 5
1/
#221500
0/
#222000
b1 5
b1 3
0$
0&
0"
b1 (
b1 2
11
b100 4
1/
#222500
0/
#223000
b10 3
1'
1#
1&
b0 (
b0 2
01
1)
10
b1 4
1/
#223500
0/
#224000
0'
1!
1"
0#
0&
b1000 5
0)
00
b1000 3
1/
#224500
0/
#225000
b100000 5
b100000 3
1'
1%
0"
b10 (
b10 2
11
b1000 4
1/
#225500
0/
#226000
0!
1&
1#
1$
1"
b0 (
b0 2
01
b10 3
b10 5
b1 4
1/
#226500
0/
#227000
0$
b10 3
b10 5
1/
#227500
0/
#228000
0'
1!
1$
b10 3
b10 5
1/
#228500
0/
#229000
b1000 5
b1000 3
1'
0$
0&
0#
0%
b10000 (
b10000 2
11
b10 4
1/
#229500
0/
#230000
0!
0"
b0 (
b0 2
01
b1 3
b1 5
b1 4
1/
#230500
0/
#231000
b10 5
b10 3
1$
1"
1#
1%
1&
1/
#231500
0/
#232000
0$
0"
0%
0&
b10 3
b10 5
1/
#232500
0/
#233000
0'
1&
1%
1"
0#
b1000 3
b1000 5
1/
#233500
0/
#234000
b1 5
b1 3
1'
1!
0&
0%
0"
b10 (
b10 2
11
b1000 4
1/
#234500
0/
#235000
b10 5
b10 3
0'
1%
1"
1&
1#
b0 (
b0 2
01
b1 4
1/
#235500
0/
#236000
1'
0!
0%
0&
b10000 (
b10000 2
11
b10 4
1/
#236500
0/
#237000
0'
1!
1&
b0 (
b0 2
01
b10 3
b10 5
b1 4
1/
#237500
0/
#238000
1'
1$
1%
b10000 (
b10000 2
11
b10 4
1/
#238500
0/
#239000
b0 (
b0 2
01
b10 3
b10 5
b1 4
1/
#239500
0/
#240000
0!
b10 3
b10 5
1/
#240500
0/
#241000
0'
1!
b10 3
b10 5
1/
#241500
0/
#242000
1'
0$
0"
0&
b10000 (
b10000 2
11
b10 4
1/
#242500
0/
#243000
0'
0%
0#
b0 (
b0 2
01
b1 3
b1 5
b1 4
1/
#243500
0/
#244000
b100000 5
b100000 3
1'
0!
1%
1/
#244500
0/
#245000
0'
1"
1&
b1000 3
b1000 5
1/
#245500
0/
#246000
b1 5
b1 3
1!
0"
0%
0&
b10 (
b10 2
11
b1000 4
1/
#246500
0/
#247000
b10000 3
0!
1%
1&
b0 (
b0 2
01
1)
10
b1 4
1/
#247500
0/
#248000
b10 3
1!
1#
0%
0&
b10 5
0)
00
1/
#248500
0/
#249000
b100 5
b100 3
0!
1%
1$
1"
1&
0#
b10000 (
b10000 2
11
b10 4
1/
#249500
0/
#250000
1#
b1 (
b1 2
1)
10
b100 4
1/
#250500
0/
#251000
b1 (
b1 2
0&
0"
0%
0#
1/
#251500
0/
#252000
01
1,
b1 (
b1 2
1!
1"
1#
1/
#252500
0/
#253000
b1000 5
b1000 3
1%
0$
b1 (
b1 2
0,
11
0)
00
1/
#253500
0/
#254000
b100000 5
b100000 3
1$
0"
1.
b10 (
b10 2
01
1)
10
b1000 4
1/
#254500
0/
#255000
b1000 5
b1000 3
1"
0#
0$
0%
b1000 (
b1000 2
0.
11
0)
00
b100000 4
1/
#255500
0/
#256000
b10000 3
1'
0!
1&
1$
0"
0.
b10 (
b10 2
11
1)
10
b1000 4
1/
#256500
0/
#257000
0'
1!
1"
0&
b0 (
b0 2
01
0)
00
b100 3
b100 5
b1 4
1/
#257500
0/
#258000
0!
1%
1#
1&
b1 (
b1 2
11
b100 4
1/
#258500
0/
#259000
b100000 5
01
b100000 3
1,
1'
1!
0#
0"
0$
0&
b1 (
b1 2
1)
10
1/
#259500
0/
#260000
0'
0!
1&
1#
1"
b0 (
b0 2
0,
0)
00
b10 3
b10 5
b1 4
1/
#260500
0/
#261000
1!
0&
b10000 (
b10000 2
11
b10 4
1/
#261500
0/
#262000
b100 5
b100 3
1&
1$
0#
1-
b10000 (
b10000 2
01
1)
10
1/
#262500
0/
#263000
1'
0!
0"
b1 (
b1 2
0-
11
0)
00
b100 4
1/
#263500
0/
#264000
0'
1#
1"
b0 (
b0 2
01
b10 3
b10 5
b1 4
1/
#264500
0/
#265000
0$
0"
0%
b10000 (
b10000 2
11
b10 4
1/
#265500
0/
#266000
01
1-
1'
1!
1%
1"
1$
b10000 (
b10000 2
1)
10
1/
#266500
0/
#267000
0%
0"
0&
0$
b0 (
b0 2
0-
0)
00
b10 3
b10 5
b1 4
1/
#267500
0/
#268000
0'
0#
b1 3
b1 5
1/
#268500
0/
#269000
1/
#269500
0/
#270000
b10 5
b10 3
1&
1#
1/
#270500
0/
#271000
b1 5
b1 3
1'
0!
0&
0#
b10000 (
b10000 2
11
b10 4
1/
#271500
0/
#272000
b10 5
b10 3
1#
1&
b0 (
b0 2
01
b1 4
1/
#272500
0/
#273000
1!
1"
0&
b10 3
b10 5
1/
#273500
0/
#274000
1&
1%
0#
0"
b10000 3
b10000 5
1/
#274500
0/
#275000
0!
1"
1#
0&
0%
b10 3
b10 5
1/
#275500
0/
#276000
1%
1$
1&
b10 3
b10 5
1/
#276500
0/
#277000
0'
1!
0"
0%
0$
0&
0#
b1 3
b1 5
1/
#277500
0/
#278000
b10 5
b10 3
1$
1#
1%
1/
#278500
0/
#279000
1"
0$
b10000 (
b10000 2
11
b10 4
1/
#279500
0/
#280000
1'
1$
1&
1-
b10000 (
b10000 2
01
1)
10
1/
#280500
0/
#281000
0%
0"
0$
0&
0#
b0 (
b0 2
0-
0)
00
b1 3
b1 5
b1 4
1/
#281500
0/
#282000
b100 5
b100 3
1"
1%
1$
1/
#282500
0/
#283000
0'
0!
1#
1&
0%
b10 3
b10 5
1/
#283500
0/
#284000
1'
1%
0$
b10000 (
b10000 2
11
b10 4
1/
#284500
0/
#285000
1$
b0 (
b0 2
01
b10 3
b10 5
b1 4
1/
#285500
0/
#286000
0'
1!
0#
0&
b100 3
b100 5
1/
#286500
0/
#287000
b1 5
b1 3
1'
0"
0%
0$
b1 (
b1 2
11
b100 4
1/
#287500
0/
#288000
b10000 5
b10000 3
0'
1%
1&
b0 (
b0 2
01
b1 4
1/
#288500
0/
#289000
b1 5
b1 3
0!
0%
0&
b100 (
b100 2
11
b10000 4
1/
#289500
0/
#290000
b10 5
b10 3
1!
1&
1%
1#
1$
1"
b0 (
b0 2
01
1)
10
b1 4
1/
#290500
0/
#291000
0!
0%
0$
b10000 (
b10000 2
11
0)
00
b10 4
1/
#291500
0/
#292000
1$
b10000 (
b10000 2
1)
10
1/
#292500
0/
#293000
b100 5
01
b100 3
1-
b10000 (
b10000 2
1'
1!
0"
0#
1/
#293500
0/
#294000
0!
1"
1#
0$
b0 (
b0 2
0-
0)
00
b10 3
b10 5
b1 4
1/
#294500
0/
#295000
0'
1$
1%
0"
b10 3
b10 5
1/
#295500
0/
#296000
b100 5
b100 3
1"
0#
0%
b10000 (
b10000 2
11
b10 4
1/
#296500
0/
#297000
b100000 3
1'
1%
0$
0&
0"
b1 (
b1 2
1)
10
b100 4
1/
#297500
0/
#298000
1!
1#
1&
1"
b0 (
b0 2
01
0)
00
b10 3
b10 5
b1 4
1/
#298500
0/
#299000
0'
0#
0&
0"
b100000 3
b100000 5
1/
#299500
0/
#300000
1$
1&
1#
b1000 (
b1000 2
11
b100000 4
1/
#300500
0/
#301000
b10 3
1'
0!
1"
0%
0+
b1000 (
b1000 2
11
1)
10
1/
#301500
0/
#302000
0'
1%
b0 (
b0 2
01
0)
00
b10 3
b10 5
b1 4
1/
#302500
0/
#303000
b1 5
b1 3
1!
0"
0&
0$
0%
0#
b10000 (
b10000 2
11
b10 4
1/
#303500
0/
#304000
b10 3
1'
0!
1&
1%
1#
b0 (
b0 2
01
1)
10
b1 4
1/
#304500
0/
#305000
0%
0#
b10000 5
0)
00
b10000 3
1/
#305500
0/
#306000
0'
1!
1"
1%
1$
1#
b10 3
b10 5
1/
#306500
0/
#307000
b100 5
b100 3
0"
0%
0#
b10000 (
b10000 2
11
b10 4
1/
#307500
0/
#308000
1'
0!
1"
1#
1%
0&
0,
b1 (
b1 2
11
1)
10
b100 4
1/
#308500
0/
#309000
1&
0#
b0 (
b0 2
01
0)
00
b100 3
b100 5
b1 4
1/
#309500
0/
#310000
0%
0"
0$
0&
b1 3
b1 5
1/
#310500
0/
#311000
b100 5
b100 3
0'
1$
1/
#311500
0/
#312000
1'
1"
b1 (
b1 2
11
b100 4
1/
#312500
0/
#313000
1%
1#
1&
0"
b0 (
b0 2
01
b10 3
b10 5
b1 4
1/
#313500
0/
#314000
1"
0$
0&
b10 3
b10 5
1/
#314500
0/
#315000
0'
1!
1&
1$
0"
b10 3
b10 5
1/
#315500
0/
